/home/pedro/Sites/bazar/api/src/main/java/pt/pedroponte/bazar/Rest/Bazar/Saida.java
/home/pedro/Sites/bazar/api/src/main/java/pt/pedroponte/bazar/Rest/Bazar/SaidaService.java
/home/pedro/Sites/bazar/api/src/main/java/pt/pedroponte/bazar/Rest/Domingas/DomingaService.java
/home/pedro/Sites/bazar/api/src/main/java/pt/pedroponte/bazar/Rest/Domingas/JsonDominga.java
/home/pedro/Sites/bazar/api/src/main/java/pt/pedroponte/bazar/Rest/Domingas/JsonIrmao.java
/home/pedro/Sites/bazar/api/src/main/java/pt/pedroponte/bazar/Rest/Domingas/IrmaoService.java
/home/pedro/Sites/bazar/api/src/main/java/pt/pedroponte/bazar/Rest/Domingas/Dominga.java
/home/pedro/Sites/bazar/api/src/main/java/pt/pedroponte/bazar/Rest/Bazar/Produtos.java
/home/pedro/Sites/bazar/api/src/main/java/pt/pedroponte/bazar/Teste.java
/home/pedro/Sites/bazar/api/src/main/java/pt/pedroponte/bazar/Rest/Bazar/ProdutosService.java
/home/pedro/Sites/bazar/api/src/main/java/pt/pedroponte/bazar/Rest/Domingas/Irmao.java
/home/pedro/Sites/bazar/api/src/main/java/pt/pedroponte/bazar/Rest/Bazar/JsonProduto.java
/home/pedro/Sites/bazar/api/src/main/java/pt/pedroponte/bazar/Rest/Bazar/Categoria.java
/home/pedro/Sites/bazar/api/src/main/java/pt/pedroponte/bazar/Rest/Bazar/CategoriaService.java
